20 0 2 19 9
0 0 2
0 1 14
1 0 5
1 1 12
2 0 4
2 1 14
3 0 8
3 1 15
4 0 3
4 1 11
5 0 3
5 1 10
6 0 3
6 1 10
7 0 10
7 1 13
8 0 8
8 1 17
9 0 6
9 1 19
10 0 10
10 1 12
11 0 3
11 1 19
12 0 5
12 1 13
13 0 2
13 1 15
14 0 4
14 1 13
15 0 3
15 1 10
16 0 7
16 1 14
17 0 5
17 1 12
18 0 10
18 1 10
19 0 8
19 1 15